^E:\C++\PLAYING-CARDS\EJZ.PLAYINGCARDS\MAIN.CPP
E:\C++\PLAYING-CARDS\EJZ.PLAYINGCARDS\DEBUG\VC142.PDB
E:\C++\PLAYING-CARDS\EJZ.PLAYINGCARDS\DEBUG\VC142.IDB
E:\C++\PLAYING-CARDS\EJZ.PLAYINGCARDS\DEBUG\MAIN.OBJ
